Verification_of_SPI_ctr_mem/sim/work/dump.vcd
$date
	Tue Dec 12 16:48:55 2023
$end
$version
	QuestaSim Version 10.7c
$end
$timescale
	1ps
$end

$scope module uvm_root $end
$upscope $end

$scope module top_tb $end

$scope module dut $end
$var wire 1 ! wr $end
$var wire 1 " clk $end
$var wire 1 # rst $end
$var wire 1 $ addr [7] $end
$var wire 1 % addr [6] $end
$var wire 1 & addr [5] $end
$var wire 1 ' addr [4] $end
$var wire 1 ( addr [3] $end
$var wire 1 ) addr [2] $end
$var wire 1 * addr [1] $end
$var wire 1 + addr [0] $end
$var wire 1 , din [7] $end
$var wire 1 - din [6] $end
$var wire 1 . din [5] $end
$var wire 1 / din [4] $end
$var wire 1 0 din [3] $end
$var wire 1 1 din [2] $end
$var wire 1 2 din [1] $end
$var wire 1 3 din [0] $end
$var wire 1 4 dout [7] $end
$var wire 1 5 dout [6] $end
$var wire 1 6 dout [5] $end
$var wire 1 7 dout [4] $end
$var wire 1 8 dout [3] $end
$var wire 1 9 dout [2] $end
$var wire 1 : dout [1] $end
$var wire 1 ; dout [0] $end
$var wire 1 < done $end
$var wire 1 = err $end
$var wire 1 > csreg $end
$var wire 1 ? mosireg $end
$var wire 1 @ misoreg $end
$var wire 1 A readyreg $end
$var wire 1 B opdonereg $end

$scope module intf $end
$var wire 1 ! wr $end
$var wire 1 " clk $end
$var wire 1 # rst $end
$var wire 1 A ready $end
$var wire 1 B op_done $end
$var wire 1 $ addr [7] $end
$var wire 1 % addr [6] $end
$var wire 1 & addr [5] $end
$var wire 1 ' addr [4] $end
$var wire 1 ( addr [3] $end
$var wire 1 ) addr [2] $end
$var wire 1 * addr [1] $end
$var wire 1 + addr [0] $end
$var wire 1 , din [7] $end
$var wire 1 - din [6] $end
$var wire 1 . din [5] $end
$var wire 1 / din [4] $end
$var wire 1 0 din [3] $end
$var wire 1 1 din [2] $end
$var wire 1 2 din [1] $end
$var wire 1 3 din [0] $end
$var wire 1 4 dout [7] $end
$var wire 1 5 dout [6] $end
$var wire 1 6 dout [5] $end
$var wire 1 7 dout [4] $end
$var wire 1 8 dout [3] $end
$var wire 1 9 dout [2] $end
$var wire 1 : dout [1] $end
$var wire 1 ; dout [0] $end
$var reg 1 C cs $end
$var reg 1 D mosi $end
$var wire 1 @ miso $end
$var reg 1 E done $end
$var reg 1 F err $end
$var reg 17 G din_reg [16:0] $end
$var reg 8 H dout_reg [7:0] $end
$var integer 32 I count $end
$var reg 3 J state [2:0] $end
$upscope $end

$scope module mem_inst $end
$var wire 1 " clk $end
$var wire 1 # rst $end
$var wire 1 > cs $end
$var wire 1 ? miso $end
$var reg 1 K ready $end
$var reg 1 L mosi $end
$var reg 1 M op_done $end
$var integer 32 N count $end
$var reg 16 O datain [15:0] $end
$var reg 8 P dataout [7:0] $end
$var reg 3 Q state [2:0] $end
$upscope $end
$upscope $end
$upscope $end

$scope begin uvm_pkg $end
$var parameter 32 R UVM_HDL_MAX_WIDTH $end
$var parameter 32 S UVM_STREAMBITS $end
$var parameter 32 T UVM_RADIX $end
$var parameter 32 U UVM_MACRO_NUMFLAGS $end
$var parameter 32 V UVM_DEFAULT $end
$var parameter 32 W UVM_ALL_ON $end
$var parameter 32 X UVM_FLAGS_ON $end
$var parameter 32 Y UVM_FLAGS_OFF $end
$var parameter 32 Z UVM_COPY $end
$var parameter 32 [ UVM_NOCOPY $end
$var parameter 32 \ UVM_COMPARE $end
$var parameter 32 ] UVM_NOCOMPARE $end
$var parameter 32 ^ UVM_PRINT $end
$var parameter 32 _ UVM_NOPRINT $end
$var parameter 32 ` UVM_RECORD $end
$var parameter 32 a UVM_NORECORD $end
$var parameter 32 b UVM_PACK $end
$var parameter 32 c UVM_NOPACK $end
$var parameter 32 d UVM_PHYSICAL $end
$var parameter 32 e UVM_ABSTRACT $end
$var parameter 32 f UVM_READONLY $end
$var parameter 32 g UVM_NODEFPRINT $end
$var parameter 32 h UVM_MACRO_EXTRAS $end
$var parameter 32 i UVM_FLAGS $end
$var parameter 32 j UVM_UNPACK $end
$var parameter 32 k UVM_CHECK_FIELDS $end
$var parameter 32 l UVM_END_DATA_EXTRA $end
$var parameter 32 m UVM_START_FUNCS $end
$var parameter 32 n UVM_SET $end
$var parameter 32 o UVM_SETINT $end
$var parameter 32 p UVM_SETOBJ $end
$var parameter 32 q UVM_SETSTR $end
$var parameter 32 r UVM_END_FUNCS $end
$var parameter 32 s UVM_STR_CRC_POLYNOMIAL $end
$var parameter 32 t UVM_STDOUT $end
$var parameter 32 u UVM_LINE_WIDTH $end
$var parameter 32 v UVM_NUM_LINES $end
$var parameter 32 w UVM_SMALL_STRING $end
$var parameter 32 x UVM_LARGE_STRING $end
$var reg 1 y uvm_start_uvm_declarations $end
$var integer 32 z uvm_global_random_seed $end
$var integer 32 { UVM_UNBOUNDED_CONNECTIONS $end

$scope function uvm_hdl_check_path $end
$var integer 32 | uvm_hdl_check_path $end
$upscope $end

$scope function uvm_hdl_deposit $end
$var integer 32 } uvm_hdl_deposit $end
$var reg 1024 ~ value [1023:0] $end
$upscope $end

$scope function uvm_hdl_force $end
$var integer 32 !! uvm_hdl_force $end
$var reg 1024 "! value [1023:0] $end
$upscope $end

$scope task uvm_hdl_force_time $end
$var reg 1024 #! value [1023:0] $end
$var time 64 $! force_time $end
$upscope $end

$scope function uvm_hdl_release_and_read $end
$var integer 32 %! uvm_hdl_release_and_read $end
$var reg 1024 &! value [1023:0] $end
$upscope $end

$scope function uvm_hdl_release $end
$var integer 32 '! uvm_hdl_release $end
$upscope $end

$scope function uvm_hdl_read $end
$var integer 32 (! uvm_hdl_read $end
$var reg 1024 )! value [1023:0] $end
$upscope $end

$scope function uvm_dpi_get_next_arg $end
$upscope $end

$scope function uvm_dpi_get_tool_name $end
$upscope $end

$scope function uvm_dpi_get_tool_version $end
$upscope $end

$scope function uvm_re_match $end
$var integer 32 *! uvm_re_match $end
$var integer 32 +! e $end
$var integer 32 ,! es $end
$var integer 32 -! s $end
$var integer 32 .! ss $end
$upscope $end

$scope function uvm_dump_re_cache $end
$upscope $end

$scope function uvm_glob_to_re $end
$upscope $end

$scope function uvm_revision_string $end
$upscope $end

$scope function uvm_radix_to_string $end
$var integer 32 /! radix $end
$upscope $end

$scope function uvm_instance_scope $end
$var reg 8 0! c [7:0] $end
$var integer 32 1! pos $end
$upscope $end

$scope function uvm_oneway_hash $end
$var integer 32 2! uvm_oneway_hash $end
$var integer 32 3! seed $end
$var reg 1 4! msb $end
$var reg 8 5! current_byte [7:0] $end
$var reg 32 6! crc1 [31:0] $end
$upscope $end

$scope function uvm_create_random_seed $end
$var integer 32 7! uvm_create_random_seed $end
$upscope $end

$scope function uvm_object_value_str $end
$upscope $end

$scope function uvm_leaf_scope $end
$var reg 8 8! scope_separator [7:0] $end
$var reg 8 9! bracket_match [7:0] $end
$var integer 32 :! pos $end
$var integer 32 ;! bmatches $end
$upscope $end

$scope function uvm_vector_to_string $end
$var reg 4096 <! value [4095:0] $end
$var integer 32 =! size $end
$var integer 32 >! radix $end
$upscope $end

$scope function uvm_get_array_index_int $end
$var integer 32 ?! uvm_get_array_index_int $end
$var reg 1 @! is_wildcard $end
$var integer 32 A! i $end
$upscope $end

$scope function uvm_get_array_index_string $end
$var reg 1 B! is_wildcard $end
$var integer 32 C! i $end
$upscope $end

$scope function uvm_is_array $end
$var reg 1 D! uvm_is_array $end
$upscope $end

$scope function uvm_has_wildcard $end
$upscope $end

$scope task run_test $end
$upscope $end

$scope function global_stop_request $end
$upscope $end

$scope function set_global_timeout $end
$var time 64 E! timeout $end
$var reg 1 F! overridable $end
$upscope $end

$scope function set_global_stop_timeout $end
$var time 64 G! timeout $end
$upscope $end

$scope function uvm_report_enabled $end
$var reg 1 H! uvm_report_enabled $end
$var integer 32 I! verbosity $end
$var reg 2 J! severity [1:0] $end
$upscope $end

$scope function uvm_report $end
$var reg 2 K! severity [1:0] $end
$var integer 32 L! verbosity $end
$var integer 32 M! line $end
$upscope $end

$scope function uvm_report_info $end
$var integer 32 N! verbosity $end
$var integer 32 O! line $end
$upscope $end

$scope function uvm_report_warning $end
$var integer 32 P! verbosity $end
$var integer 32 Q! line $end
$upscope $end

$scope function uvm_report_error $end
$var integer 32 R! verbosity $end
$var integer 32 S! line $end
$upscope $end

$scope function uvm_report_fatal $end
$var integer 32 T! verbosity $end
$var integer 32 U! line $end
$upscope $end

$scope function uvm_string_to_severity $end
$var reg 1 V! uvm_string_to_severity $end
$var reg 2 W! sev [1:0] $end
$upscope $end

$scope function uvm_string_to_action $end
$upscope $end

$scope function set_config_int $end
$var reg 4096 X! value [4095:0] $end
$upscope $end

$scope function set_config_object $end
$var reg 1 Y! clone $end
$upscope $end

$scope function set_config_string $end
$upscope $end

$scope function uvm_is_match $end
$var reg 1 Z! uvm_is_match $end
$upscope $end

$scope function uvm_string_to_bits $end
$var reg 115200 [! uvm_string_to_bits [115199:0] $end
$upscope $end

$scope function uvm_bits_to_string $end
$var reg 115200 \! str [115199:0] $end
$upscope $end

$scope task uvm_wait_for_nba_region $end
$var integer 32 ]! nba $end
$var integer 32 ^! next_nba $end
$upscope $end

$scope function uvm_split_string $end
$upscope $end

$scope function uvm_hdl_concat2string $end
$upscope $end
$upscope $end

$scope begin agent_pkg $end
$upscope $end

$scope begin env_pkg $end
$upscope $end

$scope begin seq_lib_pkg $end
$upscope $end

$scope begin test_lib_pkg $end
$upscope $end

$scope begin top_tb_sv_unit $end
$upscope $end

$scope begin std $end
$upscope $end
$enddefinitions $end
#0
$dumpvars
xC
xD
xE
xF
bx G
bx H
b0 J
xK
xL
xM
bx O
bx P
b0 Q
0B!
0D!
0V!
b0 W!
0Z!
bx [!
bx \!
bx ~
bx "!
bx #!
bx &!
bx )!
1y
14!
b1110010 5!
b10001110010001111110000001110011 6!
bx <!
0@!
0F!
0H!
b0 J!
b0 K!
bx X!
0Y!
b10000000000 R
b1000000000000 S
b1111000000000000000000000000 T
b10001 U
b10101010101 V
b101010101 W
b101010101 X
b0 Y
b1 Z
b10 [
b100 \
b1000 ]
b10000 ^
b100000 _
b1000000 `
b10000000 a
b100000000 b
b1000000000 c
b10000000000000 d
b100000000000000 e
b1000000000000000 f
b10000000000000000 g
b100000000000000000 h
b100000000000000001 i
b100000000000000010 j
b100000000000000011 k
b100000000000000100 l
b100000000000000101 m
b100000000000000110 n
b100000000000000110 o
b100000000000000111 p
b100000000000001000 q
b100000000000001000 r
b100110000010001110110110110 s
b1 t
b1111000 u
b1111000 v
b1110111111 w
b11100000111111111 x
b0 I
b0 N
b0 *!
b1 +!
b0 ,!
b0 -!
b0 .!
b0 /!
b0 8!
b0 9!
b0 :!
b0 ;!
b0 C!
b0 |
b0 }
b0 !!
b0 %!
b0 '!
b0 (!
b11101101101010010110101010001100 z
b101110 0!
b111 1!
b1111001110010010010001011111101 2!
b11101101101010010110101010001100 3!
b11011110000001100101100101101101 7!
b0 =!
b0 >!
b0 ?!
b0 A!
b111110100 I!
b0 L!
b0 M!
b0 N!
b0 O!
b0 P!
b0 Q!
b0 R!
b0 S!
b0 T!
b0 U!
b100011 ]!
b100011 ^!
b11111111111111111111111111111111 {
bx $!
bx E!
bx G!
x>
x?
x@
xA
xB
0!
0"
1#
0+
0*
0)
0(
0'
0&
0%
0$
03
02
01
00
0/
0.
0-
0,
x;
x:
x9
x8
x7
x6
x5
x4
x<
x=
$end
#10000
1"
1C
0D
0F
0E
0L
0K
0M
1>
0?
0=
0<
0@
0A
0B
#20000
0"
#30000
1"
#40000
0"
#50000
1"
#60000
0"
#70000
1"
#80000
0"
#90000
1"
b100100 ^!
b100100 ]!
0#
1!
13
12
11
10
1+
1)
#100000
0"
#110000
1"
b1 J
b0 O
#120000
0"
#130000
1"
b1111000001011 G
b10 J
#140000
0"
#150000
1"
0C
b11 J
0>
#160000
0"
#170000
1"
b1 Q
b1 I
1D
1?
#180000
0"
#190000
1"
b10 I
b10 Q
#200000
0"
#210000
1"
b1 O
b1 N
b11 I
0D
0?
#220000
0"
#230000
1"
b100 I
1D
b10 N
1?
#240000
0"
#250000
1"
b101 O
b11 N
b101 I
0D
0?
#260000
0"
#270000
1"
b110 I
b100 N
#280000
0"
#290000
1"
b101 N
b111 I
#300000
0"
#310000
1"
b1000 I
b110 N
#320000
0"
#330000
1"
b111 N
b1001 I
#340000
0"
#350000
1"
b1010 I
1D
b1000 N
1?
#360000
0"
#370000
1"
b100000101 O
b1001 N
b1011 I
#380000
0"
#390000
1"
b1100 I
b1100000101 O
b1010 N
#400000
0"
#410000
1"
b11100000101 O
b1011 N
b1101 I
#420000
0"
#430000
1"
b1110 I
0D
b111100000101 O
b1100 N
0?
#440000
0"
#450000
1"
b1101 N
b1111 I
#460000
0"
#470000
1"
b10000 I
b1110 N
#480000
0"
#490000
1"
b1111 N
b10001 I
#500000
0"
#510000
1"
1C
b10000 N
1>
#520000
0"
#530000
1"
b0 Q
b0 N
1M
1B
#540000
0"
#550000
1"
b0 I
1E
b0 J
0M
b0 O
1<
0B
b100101 ^!
b1111001110010010010001011111110 7!
b100101 ]!
00
1/
1-
1,
0)
1(
#560000
0"
#570000
1"
b1 J
0E
0<
#580000
0"
#590000
1"
b11010111000010011 G
b10 J
#600000
0"
#610000
1"
0C
b11 J
0>
#620000
0"
#630000
1"
b1 Q
b1 I
1D
1?
#640000
0"
#650000
1"
b10 I
b10 Q
#660000
0"
#670000
1"
b1 O
b1 N
b11 I
0D
0?
#680000
0"
#690000
1"
b100 I
b10 N
#700000
0"
#710000
1"
b11 N
b101 I
1D
1?
#720000
0"
#730000
1"
b110 I
0D
b1001 O
b100 N
0?
#740000
0"
#750000
1"
b101 N
b111 I
#760000
0"
#770000
1"
b1000 I
b110 N
#780000
0"
#790000
1"
b111 N
b1001 I
#800000
0"
#810000
1"
b1010 I
1D
b1000 N
1?
#820000
0"
#830000
1"
b100001001 O
b1001 N
b1011 I
#840000
0"
#850000
1"
b1100 I
b1100001001 O
b1010 N
#860000
0"
#870000
1"
b11100001001 O
b1011 N
b1101 I
0D
0?
#880000
0"
#890000
1"
b1110 I
1D
b1100 N
1?
#900000
0"
#910000
1"
b1011100001001 O
b1101 N
b1111 I
0D
0?
#920000
0"
#930000
1"
b10000 I
1D
b1110 N
1?
#940000
0"
#950000
1"
b101011100001001 O
b1111 N
b10001 I
#960000
0"
#970000
1"
1C
0D
b1101011100001001 O
b10000 N
1>
0?
#980000
0"
#990000
1"
b0 Q
b0 N
1M
1B
#1000000
0"
#1010000
1"
b0 I
1E
b0 J
0M
b0 O
1<
0B
b100110 ^!
b1111001110010010010001100000000 7!
b100110 ]!
03
10
0/
0,
0(
#1020000
0"
#1030000
1"
b1 J
0E
0<
#1040000
0"
#1050000
1"
b1001110000000011 G
b10 J
#1060000
0"
#1070000
1"
0C
b11 J
0>
#1080000
0"
#1090000
1"
b1 Q
b1 I
1D
1?
#1100000
0"
#1110000
1"
b10 I
b10 Q
#1120000
0"
#1130000
1"
b1 O
b1 N
b11 I
0D
0?
#1140000
0"
#1150000
1"
b100 I
b10 N
#1160000
0"
#1170000
1"
b11 N
b101 I
#1180000
0"
#1190000
1"
b110 I
b100 N
#1200000
0"
#1210000
1"
b101 N
b111 I
#1220000
0"
#1230000
1"
b1000 I
b110 N
#1240000
0"
#1250000
1"
b111 N
b1001 I
#1260000
0"
#1270000
1"
b1010 I
b1000 N
#1280000
0"
#1290000
1"
b1001 N
b1011 I
1D
1?
#1300000
0"
#1310000
1"
b1100 I
b1000000001 O
b1010 N
#1320000
0"
#1330000
1"
b11000000001 O
b1011 N
b1101 I
#1340000
0"
#1350000
1"
b1110 I
0D
b111000000001 O
b1100 N
0?
#1360000
0"
#1370000
1"
b1101 N
b1111 I
#1380000
0"
#1390000
1"
b10000 I
1D
b1110 N
1?
#1400000
0"
#1410000
1"
b100111000000001 O
b1111 N
b10001 I
0D
0?
#1420000
0"
#1430000
1"
1C
b10000 N
1>
#1440000
0"
#1450000
1"
b0 Q
b0 N
1M
1B
#1460000
0"
#1470000
1"
b0 I
1E
b0 J
0M
b0 O
1<
0B
b100111 ^!
b1111001110010010010001100000011 7!
b100111 ]!
01
00
1.
0+
1(
#1480000
0"
#1490000
1"
b1 J
0E
0<
#1500000
0"
#1510000
1"
b1100010000010001 G
b10 J
#1520000
0"
#1530000
1"
0C
b11 J
0>
#1540000
0"
#1550000
1"
b1 Q
b1 I
1D
1?
#1560000
0"
#1570000
1"
b10 I
0D
b10 Q
0?
#1580000
0"
#1590000
1"
b1 N
b11 I
#1600000
0"
#1610000
1"
b100 I
b10 N
#1620000
0"
#1630000
1"
b11 N
b101 I
1D
1?
#1640000
0"
#1650000
1"
b110 I
0D
b1000 O
b100 N
0?
#1660000
0"
#1670000
1"
b101 N
b111 I
#1680000
0"
#1690000
1"
b1000 I
b110 N
#1700000
0"
#1710000
1"
b111 N
b1001 I
#1720000
0"
#1730000
1"
b1010 I
b1000 N
#1740000
0"
#1750000
1"
b1001 N
b1011 I
1D
1?
#1760000
0"
#1770000
1"
b1100 I
0D
b1000001000 O
b1010 N
0?
#1780000
0"
#1790000
1"
b1011 N
b1101 I
#1800000
0"
#1810000
1"
b1110 I
b1100 N
#1820000
0"
#1830000
1"
b1101 N
b1111 I
1D
1?
#1840000
0"
#1850000
1"
b10000 I
b10001000001000 O
b1110 N
#1860000
0"
#1870000
1"
b110001000001000 O
b1111 N
b10001 I
0D
0?
#1880000
0"
#1890000
1"
1C
b10000 N
1>
#1900000
0"
#1910000
1"
b0 Q
b0 N
1M
1B
#1920000
0"
#1930000
1"
b0 I
1E
b0 J
0M
b0 O
1<
0B
b101000 ^!
b1111001110010010010001100000111 7!
b101000 ]!
13
10
1*
0(
#1940000
0"
#1950000
1"
b1 J
0E
0<
#1960000
0"
#1970000
1"
b1101011000000101 G
b10 J
#1980000
0"
#1990000
1"
0C
b11 J
0>
#2000000
0"
#2010000
1"
b1 Q
b1 I
1D
1?
#2020000
0"
#2030000
1"
b10 I
0D
b10 Q
0?
#2040000
0"
#2050000
1"
b1 N
b11 I
1D
1?
#2060000
0"
#2070000
1"
b100 I
0D
b10 O
b10 N
0?
#2080000
0"
#2090000
1"
b11 N
b101 I
#2100000
0"
#2110000
1"
b110 I
b100 N
#2120000
0"
#2130000
1"
b101 N
b111 I
#2140000
0"
#2150000
1"
b1000 I
b110 N
#2160000
0"
#2170000
1"
b111 N
b1001 I
#2180000
0"
#2190000
1"
b1010 I
1D
b1000 N
1?
#2200000
0"
#2210000
1"
b100000010 O
b1001 N
b1011 I
#2220000
0"
#2230000
1"
b1100 I
0D
b1100000010 O
b1010 N
0?
#2240000
0"
#2250000
1"
b1011 N
b1101 I
1D
1?
#2260000
0"
#2270000
1"
b1110 I
0D
b101100000010 O
b1100 N
0?
#2280000
0"
#2290000
1"
b1101 N
b1111 I
1D
1?
#2300000
0"
#2310000
1"
b10000 I
b10101100000010 O
b1110 N
#2320000
0"
#2330000
1"
b110101100000010 O
b1111 N
b10001 I
0D
0?
#2340000
0"
#2350000
1"
1C
b10000 N
1>
#2360000
0"
#2370000
1"
b0 Q
b0 N
1M
1B
#2380000
0"
#2390000
1"
b0 I
1E
b0 J
0M
b0 O
1<
0B
b101001 ^!
b1111001110010010010001100001100 7!
b101001 ]!
03
1/
0-
0*
#2400000
0"
#2410000
1"
b1 J
0E
0<
#2420000
0"
#2430000
1"
b111010000000001 G
b10 J
#2440000
0"
#2450000
1"
0C
b11 J
0>
#2460000
0"
#2470000
1"
b1 Q
b1 I
1D
1?
#2480000
0"
#2490000
1"
b10 I
0D
b10 Q
0?
#2500000
0"
#2510000
1"
b1 N
b11 I
#2520000
0"
#2530000
1"
b100 I
b10 N
#2540000
0"
#2550000
1"
b11 N
b101 I
#2560000
0"
#2570000
1"
b110 I
b100 N
#2580000
0"
#2590000
1"
b101 N
b111 I
#2600000
0"
#2610000
1"
b1000 I
b110 N
#2620000
0"
#2630000
1"
b111 N
b1001 I
#2640000
0"
#2650000
1"
b1010 I
b1000 N
#2660000
0"
#2670000
1"
b1001 N
b1011 I
1D
1?
#2680000
0"
#2690000
1"
b1100 I
0D
b1000000000 O
b1010 N
0?
#2700000
0"
#2710000
1"
b1011 N
b1101 I
1D
1?
#2720000
0"
#2730000
1"
b1110 I
b101000000000 O
b1100 N
#2740000
0"
#2750000
1"
b1101000000000 O
b1101 N
b1111 I
#2760000
0"
#2770000
1"
b10000 I
0D
b11101000000000 O
b1110 N
0?
#2780000
0"
#2790000
1"
b1111 N
b10001 I
#2800000
0"
#2810000
1"
1C
b10000 N
1>
#2820000
0"
#2830000
1"
b0 Q
b0 N
1M
1B
#2840000
0"
#2850000
1"
b0 I
1E
b0 J
0M
b0 O
1<
0B
b101010 ^!
b1111001110010010010001100010010 7!
b101010 ]!
00
0/
0.
1-
1,
1*
1)
#2860000
0"
#2870000
1"
b1 J
0E
0<
#2880000
0"
#2890000
1"
b11000010000001101 G
b10 J
#2900000
0"
#2910000
1"
0C
b11 J
0>
#2920000
0"
#2930000
1"
b1 Q
b1 I
1D
1?
#2940000
0"
#2950000
1"
b10 I
0D
b10 Q
0?
#2960000
0"
#2970000
1"
b1 N
b11 I
1D
1?
#2980000
0"
#2990000
1"
b100 I
b10 O
b10 N
#3000000
0"
#3010000
1"
b110 O
b11 N
b101 I
0D
0?
#3020000
0"
#3030000
1"
b110 I
b100 N
#3040000
0"
#3050000
1"
b101 N
b111 I
#3060000
0"
#3070000
1"
b1000 I
b110 N
#3080000
0"
#3090000
1"
b111 N
b1001 I
#3100000
0"
#3110000
1"
b1010 I
b1000 N
#3120000
0"
#3130000
1"
b1001 N
b1011 I
1D
1?
#3140000
0"
#3150000
1"
b1100 I
0D
b1000000110 O
b1010 N
0?
#3160000
0"
#3170000
1"
b1011 N
b1101 I
#3180000
0"
#3190000
1"
b1110 I
b1100 N
#3200000
0"
#3210000
1"
b1101 N
b1111 I
#3220000
0"
#3230000
1"
b10000 I
1D
b1110 N
1?
#3240000
0"
#3250000
1"
b100001000000110 O
b1111 N
b10001 I
#3260000
0"
#3270000
1"
1C
0D
b1100001000000110 O
b10000 N
1>
0?
#3280000
0"
#3290000
1"
b0 Q
b0 N
1M
1B
#3300000
0"
#3310000
1"
b0 I
1E
b0 J
0M
b0 O
1<
0B
b101011 ^!
b1111001110010010010001100011001 7!
b101011 ]!
13
11
10
1.
0)
1(
#3320000
0"
#3330000
1"
b1 J
0E
0<
#3340000
0"
#3350000
1"
b11101111000010101 G
b10 J
#3360000
0"
#3370000
1"
0C
b11 J
0>
#3380000
0"
#3390000
1"
b1 Q
b1 I
1D
1?
#3400000
0"
#3410000
1"
b10 I
0D
b10 Q
0?
#3420000
0"
#3430000
1"
b1 N
b11 I
1D
1?
#3440000
0"
#3450000
1"
b100 I
0D
b10 O
b10 N
0?
#3460000
0"
#3470000
1"
b11 N
b101 I
1D
1?
#3480000
0"
#3490000
1"
b110 I
0D
b1010 O
b100 N
0?
#3500000
0"
#3510000
1"
b101 N
b111 I
#3520000
0"
#3530000
1"
b1000 I
b110 N
#3540000
0"
#3550000
1"
b111 N
b1001 I
#3560000
0"
#3570000
1"
b1010 I
1D
b1000 N
1?
#3580000
0"
#3590000
1"
b100001010 O
b1001 N
b1011 I
#3600000
0"
#3610000
1"
b1100 I
b1100001010 O
b1010 N
#3620000
0"
#3630000
1"
b11100001010 O
b1011 N
b1101 I
#3640000
0"
#3650000
1"
b1110 I
0D
b111100001010 O
b1100 N
0?
#3660000
0"
#3670000
1"
b1101 N
b1111 I
1D
1?
#3680000
0"
#3690000
1"
b10000 I
b10111100001010 O
b1110 N
#3700000
0"
#3710000
1"
b110111100001010 O
b1111 N
b10001 I
#3720000
0"
#3730000
1"
1C
0D
b1110111100001010 O
b10000 N
1>
0?
#3740000
0"
#3750000
1"
b0 Q
b0 N
1M
1B
#3760000
0"
#3770000
1"
b0 I
1E
b0 J
0M
b0 O
1<
0B
b101100 ^!
b1111001110010010010001100100001 7!
b101100 ]!
02
01
00
1/
0.
1)
0(
#3780000
0"
#3790000
1"
b1 J
0E
0<
#3800000
0"
#3810000
1"
b11010001000001101 G
b10 J
#3820000
0"
#3830000
1"
0C
b11 J
0>
#3840000
0"
#3850000
1"
b1 Q
b1 I
1D
1?
#3860000
0"
#3870000
1"
b10 I
0D
b10 Q
0?
#3880000
0"
#3890000
1"
b1 N
b11 I
1D
1?
#3900000
0"
#3910000
1"
b100 I
b10 O
b10 N
#3920000
0"
#3930000
1"
b110 O
b11 N
b101 I
0D
0?
#3940000
0"
#3950000
1"
b110 I
b100 N
#3960000
0"
#3970000
1"
b101 N
b111 I
#3980000
0"
#3990000
1"
b1000 I
b110 N
#4000000
0"
#4010000
1"
b111 N
b1001 I
#4020000
0"
#4030000
1"
b1010 I
1D
b1000 N
1?
#4040000
0"
#4050000
1"
b100000110 O
b1001 N
b1011 I
0D
0?
#4060000
0"
#4070000
1"
b1100 I
b1010 N
#4080000
0"
#4090000
1"
b1011 N
b1101 I
#4100000
0"
#4110000
1"
b1110 I
1D
b1100 N
1?
#4120000
0"
#4130000
1"
b1000100000110 O
b1101 N
b1111 I
0D
0?
#4140000
0"
#4150000
1"
b10000 I
1D
b1110 N
1?
#4160000
0"
#4170000
1"
b101000100000110 O
b1111 N
b10001 I
#4180000
0"
#4190000
1"
1C
0D
b1101000100000110 O
b10000 N
1>
0?
#4200000
0"
#4210000
1"
b0 Q
b0 N
1M
1B
#4220000
0"
#4230000
1"
b0 I
1E
b0 J
0M
b0 O
1<
0B
b101101 ^!
b1111001110010010010001100101010 7!
b101101 ]!
11
10
0/
1.
0-
0,
1+
0*
0)
1(
#4240000
0"
#4250000
1"
b1 J
0E
0<
#4260000
0"
#4270000
1"
b101101000010011 G
b10 J
#4280000
0"
#4290000
1"
0C
b11 J
0>
#4300000
0"
#4310000
1"
b1 Q
b1 I
1D
1?
#4320000
0"
#4330000
1"
b10 I
b10 Q
#4340000
0"
#4350000
1"
b1 O
b1 N
b11 I
0D
0?
#4360000
0"
#4370000
1"
b100 I
b10 N
#4380000
0"
#4390000
1"
b11 N
b101 I
1D
1?
#4400000
0"
#4410000
1"
b110 I
0D
b1001 O
b100 N
0?
#4420000
0"
#4430000
1"
b101 N
b111 I
#4440000
0"
#4450000
1"
b1000 I
b110 N
#4460000
0"
#4470000
1"
b111 N
b1001 I
#4480000
0"
#4490000
1"
b1010 I
1D
b1000 N
1?
#4500000
0"
#4510000
1"
b100001001 O
b1001 N
b1011 I
0D
0?
#4520000
0"
#4530000
1"
b1100 I
1D
b1010 N
1?
#4540000
0"
#4550000
1"
b10100001001 O
b1011 N
b1101 I
#4560000
0"
#4570000
1"
b1110 I
0D
b110100001001 O
b1100 N
0?
#4580000
0"
#4590000
1"
b1101 N
b1111 I
1D
1?
#4600000
0"
#4610000
1"
b10000 I
0D
b10110100001001 O
b1110 N
0?
#4620000
0"
#4630000
1"
b1111 N
b10001 I
#4640000
0"
#4650000
1"
1C
b10000 N
1>
#4660000
0"
#4670000
1"
b0 Q
b0 N
1M
1B
#4680000
0"
#4690000
1"
b0 I
1E
b0 J
0M
b0 O
1<
0B
b101110 ^!
b1111001110010010010001100110100 7!
b101110 ]!
0!
03
1/
1,
0+
0(
#4700000
0"
#4710000
1"
b1 J
0E
0<
#4720000
0"
#4730000
1"
b10111100000000000 G
b10 J
#4740000
0"
#4750000
1"
b100 J
0C
0>
#4760000
0"
#4770000
1"
b1 Q
b1 I
#4780000
0"
#4790000
1"
b10 I
b11 Q
#4800000
0"
#4810000
1"
b1 N
b11 I
#4820000
0"
#4830000
1"
b100 I
b10 N
#4840000
0"
#4850000
1"
b11 N
b101 I
#4860000
0"
#4870000
1"
b110 I
b100 N
#4880000
0"
#4890000
1"
b101 N
b111 I
#4900000
0"
#4910000
1"
b1000 I
b110 N
#4920000
0"
#4930000
1"
b111 N
b1001 I
#4940000
0"
#4950000
1"
b0 I
1C
b111 J
b1000 N
1>
#4960000
0"
#4970000
1"
b0 N
b100 Q
1K
b111010 P
1A
#4980000
0"
#4990000
1"
b101 J
0K
b1 N
0A
#5000000
0"
#5010000
1"
b10 N
1L
b1 I
bx0 H
1@
0;
#5020000
0"
#5030000
1"
b10 I
bx10 H
b11 N
0L
1:
0@
#5040000
0"
#5050000
1"
b100 N
1L
b11 I
bx010 H
1@
09
#5060000
0"
#5070000
1"
b100 I
bx1010 H
b101 N
18
#5080000
0"
#5090000
1"
b110 N
b101 I
bx11010 H
17
#5100000
0"
#5110000
1"
b110 I
bx111010 H
b111 N
0L
16
0@
#5120000
0"
#5130000
1"
b1000 N
b111 I
bx0111010 H
05
#5140000
0"
#5150000
1"
b1000 I
b111010 H
b0 N
b0 Q
1M
04
1B
#5160000
0"
#5170000
1"
0M
b0 I
1E
b0 J
0B
1<
b101111 ^!
b1111001110010010010001100111111 7!
b101111 ]!
12
01
#5180000
0"
#5190000
1"
b1 J
0E
0<
#5200000
0"
#5210000
1"
b10111010000000000 G
b10 J
#5220000
0"
#5230000
1"
b100 J
0C
0>
#5240000
0"
#5250000
1"
b1 Q
b1 I
#5260000
0"
#5270000
1"
b10 I
b11 Q
#5280000
0"
#5290000
1"
b1 N
b11 I
#5300000
0"
#5310000
1"
b100 I
b10 N
#5320000
0"
#5330000
1"
b11 N
b101 I
#5340000
0"
#5350000
1"
b110 I
b100 N
#5360000
0"
#5370000
1"
b101 N
b111 I
#5380000
0"
#5390000
1"
b1000 I
b110 N
#5400000
0"
#5410000
1"
b111 N
b1001 I
#5420000
0"
#5430000
1"
b0 I
1C
b111 J
b1000 N
1>
#5440000
0"
#5450000
1"
b0 N
b100 Q
1K
1A
#5460000
0"
#5470000
1"
b101 J
0K
b1 N
0A
